<svg xmlns="http://www.w3.org/2000/svg" width="24" height="24" viewBox="0 0 24 24">
    <path fill="#C2C2C2" fill-rule="nonzero" d="M16.532 23.936v-9.248h3.104l.465-3.605h-3.569v-2.3c0-1.044.29-1.755 1.786-1.755l1.909-.001V3.803c-.33-.044-1.463-.142-2.781-.142-2.752 0-4.636 1.68-4.636 4.764v2.658H9.698v3.605h3.112v9.248H1.373c-.729 0-1.319-.59-1.319-1.318V1.373C.054.644.644.054 1.373.054h21.245c.728 0 1.318.59 1.318 1.319v21.245c0 .728-.59 1.318-1.318 1.318h-6.086z"/>
</svg>
