<svg xmlns="http://www.w3.org/2000/svg" xmlns:xlink="http://www.w3.org/1999/xlink" width="168" height="168" viewBox="0 0 168 168">
   <g fill="none" fill-rule="evenodd">
        <mask id="b" fill="#fff">
            <use xlink:href="#a"/>
        </mask>
        <circle id="a" cx="84" cy="84" r="84"/>
        <circle cx="84" cy="84" r="83" stroke="#003EFF" stroke-width="2"/>
        <path fill="#003EFF" fill-rule="nonzero" d="M62.059 123.247c7.328-4.665 8.754-12.781 9.024-17.142.166-2.711.044-5.422.054-8.137 1.719 1.081 4.043 2.28 6.194 2.691.976.187 1.2-1.329.23-1.516-7.811-1.496-12.576-8.861-14.994-15.878-2.46-7.136-3.267-14.906-3.26-22.424 4.746-.507 19.24-2.948 23.568-14.066 0 0 5.686 10.664 23.539 13.104.453 7.143-.114 14.476-1.767 21.353-.064.266-.14.534-.208.802a49.225 49.225 0 0 1-1.892 4.683c-.01.039-.002.072-.015.113-.652 1.911-1.35 3.737-2.344 5.372-2.705 4.171-6.56 7.31-11.965 7.621-.984.058-.99 1.592 0 1.536 2.549-.149 4.785-1.23 6.746-2.31-.017 2.356-.09 4.714.057 7.066.505 8.189 3.472 13.576 9.009 17.116-21.276 31.94-41.556-.031-41.556-.031s-.156.016-.42.047zm-4.103-56.513c.27 4.312.884 8.613 1.937 12.793-3.123-.419-5.705-2.619-6.744-5.579-1.274-3.632 1.478-7.196 4.807-7.214zm51.374.095c2.909.573 5.082 3.815 3.922 7.119-1.023 2.923-3.56 5.1-6.63 5.558.868-4.079 1.338-8.298 1.457-12.524a4.26 4.26 0 0 1 1.25-.153zm9.245 60.349c-6.207-2.008-13.092-3.686-17.508-8.87-2.647-3.105-4.188-6.84-4.543-10.902-.27-3.074-.14-6.155-.15-9.236 1.354-.943 2.554-2.091 3.624-3.378 2.979 1.212 9.064 1.9 10.674 1.962 5.274.203 10.787-1.049 15.149-4.095 5.2-3.632 7.02-6.065 9.57-13.389-1.885 5.416-11.135 1.267-13.185-3.276-4.442-9.839-3.024-22.74-3.975-33.265-.615-6.788-3.506-13.585-7.49-19.145-2.944-4.108-9.272-8.04-14.387-8.515-4.328-.4-9.148.941-12.39 3.878-2.31 2.093-5.298 4.201-6.294 7.138-28.312 3.292-19.888 34.884-19.888 34.884a96.743 96.743 0 0 0 .1 4.235c-3.71.058-7.198 3.756-6.485 7.96.723 4.262 4.36 7.378 8.559 7.91.13.016.242 0 .337-.036a57.93 57.93 0 0 0 1.088 3.488c1.703 4.817 4.414 9.441 8.364 12.479-.063 3.471.142 6.951-.161 10.413-.357 4.062-1.898 7.808-4.544 10.915-2.366 2.775-5.44 4.548-8.737 5.908-1.507.364-2.928.83-3.82 1.403-1.658.551-3.326 1.057-4.95 1.582-6.214 2.012-11.802 4.69-16.181 9.659-3.465 3.931-5.955 8.709-7.352 13.709h1.459c.749-2 1.799-4.989 3.11-7.342 3.369-6.039 8.469-10.493 14.85-13.115a112.77 112.77 0 0 1 7.617-2.826c-2.945 4.868-5.609 27.035-6.036 34.445 17.655 6.17 30.643 9.256 38.965 9.256 9.415 0 23.032-3.086 40.851-9.256-1.54-7.847-5.971-30.789-9.455-34.073 2.485.745 4.933 1.518 7.327 2.501 6.38 2.622 11.482 7.029 14.852 13.068 1.31 2.353 2.359 5.342 3.107 7.342h1.459c-1.395-5-3.887-9.778-7.352-13.709-4.38-4.969-9.964-7.695-16.18-9.707z" mask="url(#b)"/>
    </g>
</svg>